Reverse geocoding
…
<<<<<<< HEAD

locs_KBAs[grepl("Cajamarca", locs_KBAs$address),]#22

=======

locs_KBAs[grepl("Cajamarca", locs_KBAs$address),]#22

>>>>>>> 2e88163d4eaa29987c9fe9bd70c691a9427c837c

# A tibble: 22 × 3
     lat  long address                                                          
   <dbl> <dbl> <chr>                                                            
 1 -5.07 -78.9 El Palmal, San José de Lourdes, San Ignacio, Cajamarca, Perú     
 2 -7.31 -78.2 Carretera Longitudinal de la Sierra Norte, San Marcos, Pedro Gál…
 3 -6.23 -78.8 El Paraiso, San Andrés de Cutervo, Cutervo, Cajamarca, Perú      
 4 -6.94 -79.1 Villa Bebedero, Niepos, San Miguel, Cajamarca, Perú              
 5 -7.10 -78.4 Luichupucro Bajo, Los Baños del Inca, Cajamarca, Perú            
 6 -6.74 -78.1 Celendín, Cajamarca, Perú                                        
 7 -5.56 -78.7 Bellavista, Jaén, Cajamarca, Perú                                
 8 -6.94 -78.3 Tablacucho, Sorochuco, Celendín, Cajamarca, Perú                 
 9 -7.23 -78.4 Carretera Jesus, Jesús, Cajamarca, Perú                          
10 -7.58 -78.0 Sitacocha, Cajabamba, Cajamarca, Perú                            
# ℹ 12 more rows
…
